sch_basic.c:174:6:get_help	8	static
sch_basic.c:152:6:print_temp	24	static
sch_basic.c:129:6:led_toggle	8	static
sch_basic.c:75:6:sch_default_callback	0	static
sch_basic.c:111:10:calc_deadline	16	static
sch_basic.c:137:6:send_triggered	24	static
sch_basic.c:160:6:get_temp	16	static
sch_basic.c:179:6:check_uart	16	static
sch_basic.c:116:6:print	8	static
sch_basic.c:120:6:delta_time	208	static
sch_basic.c:198:9:add_task	20	static
sch_basic.c:221:6:sch_power_up	32	static
sch_basic.c:250:6:sch_power_up_old	20	static
sch_basic.c:280:6:sch_init	0	static
sch_basic.c:291:9:sch_test	0	static
sch_basic.c:306:6:interrupt_handler	8	static
sch_basic.c:312:6:sch_loop	24	static
sch_basic.c:375:6:sch_loop_old	24	static,ignoring_inline_asm
sch_basic.c:425:6:sch_remove_timeout	8	static
sch_basic.c:467:6:sch_correct_time_shift	0	static
sch_basic.c:529:9:sch_add_loop	8	static
sch_basic.c:557:6:sch_init_timeout_list	0	static
sch_basic.c:567:14:get_free_timeout	8	static
sch_basic.c:479:9:sch_create_timeout	32	static
sch_basic.c:586:6:print_timeouts	24	static
