stm32f4xx_hal_msp.c:86:6:HAL_MspInit	8	static
stm32f4xx_hal_msp.c:110:6:HAL_ADC_MspInit	8	static
stm32f4xx_hal_msp.c:132:6:HAL_ADC_MspDeInit	0	static
stm32f4xx_hal_msp.c:154:6:HAL_TIM_Base_MspInit	8	static
stm32f4xx_hal_msp.c:170:6:HAL_TIM_MspPostInit	32	static
stm32f4xx_hal_msp.c:202:6:HAL_TIM_Base_MspDeInit	0	static
stm32f4xx_hal_msp.c:224:6:HAL_UART_MspInit	40	static
stm32f4xx_hal_msp.c:260:6:HAL_UART_MspDeInit	0	static
